Machine Learning Models Exercise Joe Dainis – My Portfoli-Joe: Joe Dainis’s Portfolio
…
##Fit the LASSO model to the data to make predictions
lasso_tune_resample <- tune_grid(
  lasso_tune_workflow,
  resamples = apparent(ml_fittingdata),
  grid = penalty_grid
)

#autoplot(lasso_tune_resample) #Autoplot() did not work for me in this instance. Show metrics of LASSO model.
lasso_metrics <- collect_metrics(lasso_tune_resample)
lasso_metrics

# A tibble: 50 × 7
     penalty .metric .estimator  mean     n std_err .config         
       <dbl> <chr>   <chr>      <dbl> <int>   <dbl> <chr>           
 1 0.00001   <NA>    <NA>          NA    NA      NA pre0_mod01_post0
 2 0.0000139 <NA>    <NA>          NA    NA      NA pre0_mod02_post0
 3 0.0000193 <NA>    <NA>          NA    NA      NA pre0_mod03_post0
 4 0.0000268 <NA>    <NA>          NA    NA      NA pre0_mod04_post0
 5 0.0000373 <NA>    <NA>          NA    NA      NA pre0_mod05_post0
 6 0.0000518 <NA>    <NA>          NA    NA      NA pre0_mod06_post0
 7 0.0000720 <NA>    <NA>          NA    NA      NA pre0_mod07_post0
 8 0.0001    <NA>    <NA>          NA    NA      NA pre0_mod08_post0
 9 0.000139  <NA>    <NA>          NA    NA      NA pre0_mod09_post0
10 0.000193  <NA>    <NA>          NA    NA      NA pre0_mod10_post0
# ℹ 40 more rows
…
rf_tune_resample <- tune_grid(
  rf_tune_workflow,
  resamples = apparent(ml_fittingdata),
  grid = rf_grid
)

#autoplot(rf_tune_resample) Autoplot does not work for me in this instance. Show metrics of random forest plot.
rf_metrics <- collect_metrics(rf_tune_resample)
rf_metrics

# A tibble: 49 × 8
    mtry min_n .metric .estimator  mean     n std_err .config         
   <int> <int> <chr>   <chr>      <dbl> <int>   <dbl> <chr>           
 1     1     1 <NA>    <NA>          NA    NA      NA pre0_mod01_post0
 2     1     4 <NA>    <NA>          NA    NA      NA pre0_mod02_post0
 3     1     7 <NA>    <NA>          NA    NA      NA pre0_mod03_post0
 4     1    11 <NA>    <NA>          NA    NA      NA pre0_mod04_post0
 5     1    14 <NA>    <NA>          NA    NA      NA pre0_mod05_post0
 6     1    17 <NA>    <NA>          NA    NA      NA pre0_mod06_post0
 7     1    21 <NA>    <NA>          NA    NA      NA pre0_mod07_post0
 8     2     1 <NA>    <NA>          NA    NA      NA pre0_mod08_post0
 9     2     4 <NA>    <NA>          NA    NA      NA pre0_mod09_post0
10     2     7 <NA>    <NA>          NA    NA      NA pre0_mod10_post0
# ℹ 39 more rows
…
